Invalid quoted string 'Reviewed' encountered while parsing (tag "CFIF" with attributes). 
Invalid quoted string 'Reviewed' encountered while parsing (tag "CFIF" with attributes). 
Invalid quoted string 'Reviewed' encountered while parsing (tag "CFIF" with attributes). 
Invalid quoted string 'Reviewed' encountered while parsing (tag "CFIF" with attributes status=). 
Invalid quoted string 'Reviewed' encountered while parsing (tag "CFIF" with attributes status=). 
Invalid quoted string 'Closed' encountered while parsing (tag "CFIF" with attributes status=). 
Invalid quoted string 'Cancelled' encountered while parsing (tag "CFIF" with attributes status=). 
